R数据分析
…
tourism %>%
  mutate(Year = lubridate::year(Quarter)) %>%
  index_by(Year) %>%
  group_by(Region, State, Purpose) %>%
  summarise(Trips = sum(Trips)) %>%
  ungroup()

# A tsibble: 6,080 x 5 [1Y]
# Key:       Region, State, Purpose [304]
   Region   State           Purpose   Year Trips
   <chr>    <chr>           <chr>    <dbl> <dbl>
 1 Adelaide South Australia Business  1998  538.
 2 Adelaide South Australia Business  1999  641.
 3 Adelaide South Australia Business  2000  787.
 4 Adelaide South Australia Business  2001  608.
 5 Adelaide South Australia Business  2002  697.
 6 Adelaide South Australia Business  2003  690.
 7 Adelaide South Australia Business  2004  734.
 8 Adelaide South Australia Business  2005  490.
 9 Adelaide South Australia Business  2006  568.
10 Adelaide South Australia Business  2007  584.
# ... with 6,070 more rows
…
