Text Mining
…
wdf <- text_df %>%
  count(word, sort = T) 
wdf

# A tibble: 22,006 x 2
   word      n
   <chr> <int>
 1 nigga  6753
 2 fuck   3974
 3 shit   3249
 4 bitch  3238
 5 love   2219
 6 yeah   2186
 7 time   1919
 8 feel   1748
 9 wanna  1652
10 em     1611
# ... with 21,996 more rows
…
get_sentiments("afinn")

# A tibble: 2,477 x 2
   word       value
   <chr>      <dbl>
 1 abandon       -2
 2 abandoned     -2
 3 abandons      -2
 4 abducted      -2
 5 abduction     -2
 6 abductions    -2
 7 abhor         -3
 8 abhorred      -3
 9 abhorrent     -3
10 abhors        -3
# ... with 2,467 more rows

get_sentiments("bing")

# A tibble: 6,786 x 2
   word        sentiment
   <chr>       <chr>    
 1 2-faces     negative 
 2 abnormal    negative 
 3 abolish     negative 
 4 abominable  negative 
 5 abominably  negative 
 6 abominate   negative 
 7 abomination negative 
 8 abort       negative 
 9 aborted     negative 
10 aborts      negative 
# ... with 6,776 more rows

get_sentiments("nrc")

# A tibble: 13,901 x 2
   word        sentiment
   <chr>       <chr>    
 1 abacus      trust    
 2 abandon     fear     
 3 abandon     negative 
 4 abandon     sadness  
 5 abandoned   anger    
 6 abandoned   fear     
 7 abandoned   negative 
 8 abandoned   sadness  
 9 abandonment anger    
10 abandonment fear     
# ... with 13,891 more rows
…
library(wordcloud)

text_df %>%
  mutate(word = reorder(word, n)) %>%
  count(word) %>%
  with(wordcloud(word, n, max.words = 100))

Error in tapply(X = X, INDEX = x, FUN = FUN, ...): arguments must have same length

rap_bigrams <- fusion %>%
  unnest_tokens(bigram, text, token = "ngrams", n = 2)
rap_bigrams

# A tibble: 851,191 x 1
   bigram      
   <chr>       
 1 c chickens  
 2 chickens in 
 3 in the      
 4 the sink    
 5 sink crack  
 6 crack on    
 7 on the      
 8 the stove   
 9 stove triple
10 triple beam 
# ... with 851,181 more rows

rap_bigrams <- rap_bigrams %>%
  count(bigram, sort = T)

rap_bigrams

# A tibble: 298,039 x 2
   bigram       n
   <chr>    <int>
 1 in the    3858
 2 on the    2083
 3 to the    1744
 4 and i     1588
 5 like a    1562
 6 i got     1481
 7 with the  1316
 8 i don't   1303
 9 in my     1210
10 of the    1162
# ... with 298,029 more rows

rap_bigrams <- rap_bigrams %>%
  separate(bigram, c("word1", "word2"),
           sep = " ") %>% 
  filter(!word1 %in% stop_words$word) %>%
  filter(!word2 %in% stop_words$word) %>% 
  filter(word1!='yeah',word1!='uh',
         word1!='ha',word1!='la') #%>% 
  #unite(bigram, word1, word2, sep = " ")

#rap_bigrams %>%
#  count(bigram, sort = T)
rap_bigrams

# A tibble: 82,422 x 3
   word1 word2      n
   <chr> <chr>  <int>
 1 hip   hop      150
 2 na    na       102
 3 y'all niggas   102
 4 yo    ass       96
 5 nike  nike      84
 6 ice   cube      83
 7 real  niggas    81
 8 juke  juke      80
 9 god   damn      77
10 clap  clap      71
# ... with 82,412 more rows
…
#set.seed(2017)
#ggraph(bigram_graph, layout = "fr") +
#  geom_edge_link() +
#  geom_node_point() +
#  geom_node_text(aes(label =name), vjust = 1, hjust = 1)

wdf <- wdf %>%
  mutate(document=rep(1:4,each=6007,len=30039)) %>% 
  bind_tf_idf(word,document, n)

Error: Column `document` must be length 22006 (the number of rows) or one, not 30039

wdf

# A tibble: 22,006 x 2
   word      n
   <chr> <int>
 1 nigga  6753
 2 fuck   3974
 3 shit   3249
 4 bitch  3238
 5 love   2219
 6 yeah   2186
 7 time   1919
 8 feel   1748
 9 wanna  1652
10 em     1611
# ... with 21,996 more rows
…
Basic NLP with NLTK

Awesome Tutorials and Basic Text Classification with Movie Reviews

Spam Detection and Deep NLP

wdf <- rap %>%
  group_by(rapper) %>% 
  count(word, sort = T) %>% 
  mutate(word = reorder(word, n),
         word=as.character(word)) %>% 
  filter(word!='na',word!='00a0') 
wdf

# A tibble: 113,363 x 3
# Groups:   rapper [36]
   rapper            word      n
   <chr>             <chr> <int>
 1 Tyler The Creator fuck    726
 2 Montana of 300    nigga   629
 3 Montana of 300    bitch   482
 4 A$AP Rocky        nigga   461
 5 the_notorious_big nigga   440
 6 Deniro Farrar     nigga   413
 7 Tyler The Creator nigga   387
 8 J Cole            nigga   366
 9 Royce Da 59       nigga   355
10 Big L             nigga   325
# ... with 113,353 more rows

bing_word_counts <- rap %>%
  inner_join(get_sentiments("bing")) %>%
  count(word,sentiment, sort = T) %>%
  ungroup()

bing_word_counts

# A tibble: 1,114 x 3
   word  sentiment     n
   <chr> <chr>     <int>
 1 fuck  negative   5006
 2 shit  negative   4059
 3 bitch negative   3943
 4 love  positive   2743
 5 kill  negative    823
 6 hard  negative    797
 7 bad   negative    767
 8 smoke negative    758
 9 die   negative    737
10 dick  negative    667
# ... with 1,104 more rows
…
totalword <- wdf %>% 
  group_by(rapper) %>% 
  summarize(total = sum(n))

book_words <- left_join(wdf, totalword)
totalword

# A tibble: 36 x 2
   rapper            total
   <chr>             <int>
 1 A$AP Ant           4142
 2 A$AP Rocky        12323
 3 Action Bronson     7617
 4 Andr 3000         1162
 5 Bas                7193
 6 Big L             16260
 7 Chance The Rapper 11053
 8 Childish Gambino  14088
 9 Common            12299
10 CunninLynguists    9900
# ... with 26 more rows

book_words

# A tibble: 113,363 x 4
# Groups:   rapper [36]
   rapper            word      n total
   <chr>             <chr> <int> <int>
 1 Tyler The Creator fuck    726 15215
 2 Montana of 300    nigga   629 18855
 3 Montana of 300    bitch   482 18855
 4 A$AP Rocky        nigga   461 12323
 5 the_notorious_big nigga   440 16175
 6 Deniro Farrar     nigga   413  7167
 7 Tyler The Creator nigga   387 15215
 8 J Cole            nigga   366  9680
 9 Royce Da 59       nigga   355 17763
10 Big L             nigga   325 16260
# ... with 113,353 more rows
…
book_words <- book_words %>%
  bind_tf_idf(word,rapper, n)

book_words

# A tibble: 113,363 x 7
# Groups:   rapper [36]
   rapper            word      n total     tf    idf   tf_idf
   <chr>             <chr> <int> <int>  <dbl>  <dbl>    <dbl>
 1 Tyler The Creator fuck    726 15215 0.0477 0.0572 0.00273 
 2 Montana of 300    nigga   629 18855 0.0334 0.0282 0.000940
 3 Montana of 300    bitch   482 18855 0.0256 0.0572 0.00146 
 4 A$AP Rocky        nigga   461 12323 0.0374 0.0282 0.00105 
 5 the_notorious_big nigga   440 16175 0.0272 0.0282 0.000766
 6 Deniro Farrar     nigga   413  7167 0.0576 0.0282 0.00162 
 7 Tyler The Creator nigga   387 15215 0.0254 0.0282 0.000717
 8 J Cole            nigga   366  9680 0.0378 0.0282 0.00107 
 9 Royce Da 59       nigga   355 17763 0.0200 0.0282 0.000563
10 Big L             nigga   325 16260 0.0200 0.0282 0.000563
# ... with 113,353 more rows
…
