Rap Lyrics Text Mining - Xiao Song
…
wdf <- rap1 %>%
  group_by(rapper) %>% 
  count(word, sort = T) %>% 
  mutate(word = reorder(word, n),
         word=as.character(word)) %>% 
  filter(word!='na') 
wdf

# A tibble: 108,957 x 3
# Groups:   rapper [36]
   rapper            word      n
   <chr>             <chr> <int>
 1 Tyler The Creator fuck    726
 2 Montana of 300    nigga   629
 3 Montana of 300    bitch   482
 4 A$AP Rocky        nigga   461
 5 the_notorious_big nigga   440
 6 Deniro Farrar     nigga   413
 7 Tyler The Creator nigga   387
 8 J Cole            nigga   366
 9 Royce Da 59       nigga   355
10 Big L             nigga   326
# ... with 108,947 more rows
…
Figure 4: Test Zipf’s Law: original scale.

In order to discern every rapper’s difference, I will calculate every word’s tf-idf value, which represents the importance of specific word for a rapper. E.g., Yeezy for Kanye West; Slim Shady for Eminem. Attention that featuring songs (Working with other rappers) might bring some noise to this dataset. For instance, Runaway is a Kanye West’s song features Push-T, who contributes a verse to the song. Nevertheless, this song belongs to Kanye completely in the dataset.

Now see the result:

totalword <- wdf %>% 
  group_by(rapper) %>% 
  summarize(total = sum(n))

book_words <- left_join(wdf, totalword)
totalword

# A tibble: 36 x 2
   rapper              total
   <chr>               <int>
 1 A$AP Ant             3747
 2 A$AP Rocky          12098
 3 Action Bronson       7496
 4 "Andr\xa8\xa6 3000"  1142
 5 Bas                  7001
 6 Big L               15752
 7 Chance The Rapper   10844
 8 Childish Gambino    13645
 9 Common              11975
10 CunninLynguists      9618
# ... with 26 more rows

book_words <- book_words %>%
  bind_tf_idf(word,rapper, n)

book_words

# A tibble: 108,957 x 7
# Groups:   rapper [36]
   rapper            word      n total     tf    idf   tf_idf
   <chr>             <chr> <int> <int>  <dbl>  <dbl>    <dbl>
 1 Tyler The Creator fuck    726 14908 0.0487 0.0572 0.00278 
 2 Montana of 300    nigga   629 18510 0.0340 0.0282 0.000957
 3 Montana of 300    bitch   482 18510 0.0260 0.0572 0.00149 
 4 A$AP Rocky        nigga   461 12098 0.0381 0.0282 0.00107 
 5 the_notorious_big nigga   440 15618 0.0282 0.0282 0.000794
 6 Deniro Farrar     nigga   413  7089 0.0583 0.0282 0.00164 
 7 Tyler The Creator nigga   387 14908 0.0260 0.0282 0.000731
 8 J Cole            nigga   366  9440 0.0388 0.0282 0.00109 
 9 Royce Da 59       nigga   355 17105 0.0208 0.0282 0.000585
10 Big L             nigga   326 15752 0.0207 0.0282 0.000583
# ... with 108,947 more rows
…
