Text Mining
…
wdf <- text_df %>%
  count(word, sort = T) 
wdf

# A tibble: 30,039 x 2
   word       n
   <chr>  <int>
 1 nigga   3381
 2 niggas  3372
 3 shit    3205
 4 fuck    2895
 5 bitch   2292
 6 yeah    2185
 7 love    2002
 8 time    1658
 9 wanna   1652
10 em      1611
# ... with 30,029 more rows
…
get_sentiments("afinn")

# A tibble: 2,477 x 2
   word       value
   <chr>      <dbl>
 1 abandon       -2
 2 abandoned     -2
 3 abandons      -2
 4 abducted      -2
 5 abduction     -2
 6 abductions    -2
 7 abhor         -3
 8 abhorred      -3
 9 abhorrent     -3
10 abhors        -3
# ... with 2,467 more rows

get_sentiments("bing")

# A tibble: 6,786 x 2
   word        sentiment
   <chr>       <chr>    
 1 2-faces     negative 
 2 abnormal    negative 
 3 abolish     negative 
 4 abominable  negative 
 5 abominably  negative 
 6 abominate   negative 
 7 abomination negative 
 8 abort       negative 
 9 aborted     negative 
10 aborts      negative 
# ... with 6,776 more rows

get_sentiments("nrc")

# A tibble: 13,901 x 2
   word        sentiment
   <chr>       <chr>    
 1 abacus      trust    
 2 abandon     fear     
 3 abandon     negative 
 4 abandon     sadness  
 5 abandoned   anger    
 6 abandoned   fear     
 7 abandoned   negative 
 8 abandoned   sadness  
 9 abandonment anger    
10 abandonment fear     
# ... with 13,891 more rows
…
library(wordcloud)

text_df %>%
  mutate(word = reorder(word, n)) %>%
  count(word) %>%
  with(wordcloud(word, n, max.words = 100))

Error in tapply(X = X, INDEX = x, FUN = FUN, ...): arguments must have same length

rap_bigrams <- fusion %>%
  unnest_tokens(bigram, text, token = "ngrams", n = 2)
rap_bigrams

# A tibble: 851,191 x 1
   bigram      
   <chr>       
 1 c chickens  
 2 chickens in 
 3 in the      
 4 the sink    
 5 sink crack  
 6 crack on    
 7 on the      
 8 the stove   
 9 stove triple
10 triple beam 
# ... with 851,181 more rows

rap_bigrams <- rap_bigrams %>%
  count(bigram, sort = T)

rap_bigrams

# A tibble: 298,039 x 2
   bigram       n
   <chr>    <int>
 1 in the    3858
 2 on the    2083
 3 to the    1744
 4 and i     1588
 5 like a    1562
 6 i got     1481
 7 with the  1316
 8 i don't   1303
 9 in my     1210
10 of the    1162
# ... with 298,029 more rows

rap_bigrams <- rap_bigrams %>%
  separate(bigram, c("word1", "word2"),
           sep = " ") %>% 
  filter(!word1 %in% stop_words$word) %>%
  filter(!word2 %in% stop_words$word) %>% 
  filter(word1!='yeah',word1!='uh',
         word1!='ha',word1!='la') #%>% 
  #unite(bigram, word1, word2, sep = " ")

#rap_bigrams %>%
#  count(bigram, sort = T)
rap_bigrams

# A tibble: 82,422 x 3
   word1 word2      n
   <chr> <chr>  <int>
 1 hip   hop      150
 2 na    na       102
 3 y'all niggas   102
 4 yo    ass       96
 5 nike  nike      84
 6 ice   cube      83
 7 real  niggas    81
 8 juke  juke      80
 9 god   damn      77
10 clap  clap      71
# ... with 82,412 more rows
…
#set.seed(2017)
#ggraph(bigram_graph, layout = "fr") +
#  geom_edge_link() +
#  geom_node_point() +
#  geom_node_text(aes(label =name), vjust = 1, hjust = 1)

wdf <- wdf %>%
  mutate(document=rep(1:4,each=6007,len=30039)) %>% 
  bind_tf_idf(word,document, n)

wdf

# A tibble: 30,039 x 6
   word       n document      tf   idf  tf_idf
   <chr>  <int>    <int>   <dbl> <dbl>   <dbl>
 1 nigga   3381        1 0.0117   1.39 0.0162 
 2 niggas  3372        1 0.0117   1.39 0.0162 
 3 shit    3205        1 0.0111   1.39 0.0154 
 4 fuck    2895        1 0.0100   1.39 0.0139 
 5 bitch   2292        1 0.00793  1.39 0.0110 
 6 yeah    2185        1 0.00756  1.39 0.0105 
 7 love    2002        1 0.00693  1.39 0.00960
 8 time    1658        1 0.00574  1.39 0.00795
 9 wanna   1652        1 0.00572  1.39 0.00792
10 em      1611        1 0.00557  1.39 0.00773
# ... with 30,029 more rows
…
Basic NLP with NLTK

Awesome Tutorials and Basic Text Classification with Movie Reviews

Spam Detection and Deep NLP

wdf <- rap %>%
  group_by(rapper) %>% 
  count(word, sort = T) %>% 
  mutate(word = reorder(word, n),
         word=as.character(word)) %>% 
  filter(word!='na',word!='00a0') 
wdf

# A tibble: 134,935 x 3
# Groups:   rapper [36]
   rapper            word        n
   <chr>             <chr>   <int>
 1 Tyler The Creator fuck      402
 2 Montana of 300    bitch     371
 3 Montana of 300    nigga     354
 4 Tyler The Creator fucking   297
 5 Montana of 300    niggas    275
 6 Deniro Farrar     nigga     270
 7 Montana of 300    shit      257
 8 A$AP Rocky        nigga     249
 9 Tyler The Creator nigga     244
10 the_notorious_big niggas    234
# ... with 134,925 more rows

bing_word_counts <- rap %>%
  inner_join(get_sentiments("bing")) %>%
  count(word,sentiment, sort = T) %>%
  ungroup()

bing_word_counts

# A tibble: 2,885 x 3
   word    sentiment     n
   <chr>   <chr>     <int>
 1 shit    negative   3999
 2 fuck    negative   3643
 3 bitch   negative   2839
 4 love    positive   2485
 5 fucking negative   1015
 6 hard    negative    795
 7 bad     negative    766
 8 die     negative    736
 9 dick    negative    646
10 damn    negative    560
# ... with 2,875 more rows
…
totalword <- wdf %>% 
  group_by(rapper) %>% 
  summarize(total = sum(n))

book_words <- left_join(wdf, totalword)
totalword

# A tibble: 36 x 2
   rapper            total
   <chr>             <int>
 1 A$AP Ant           4180
 2 A$AP Rocky        12391
 3 Action Bronson     7688
 4 Andr 3000         1169
 5 Bas                7277
 6 Big L             16353
 7 Chance The Rapper 11133
 8 Childish Gambino  14159
 9 Common            12351
10 CunninLynguists    9937
# ... with 26 more rows

book_words

# A tibble: 134,935 x 4
# Groups:   rapper [36]
   rapper            word        n total
   <chr>             <chr>   <int> <int>
 1 Tyler The Creator fuck      402 15362
 2 Montana of 300    bitch     371 19082
 3 Montana of 300    nigga     354 19082
 4 Tyler The Creator fucking   297 15362
 5 Montana of 300    niggas    275 19082
 6 Deniro Farrar     nigga     270  7234
 7 Montana of 300    shit      257 19082
 8 A$AP Rocky        nigga     249 12391
 9 Tyler The Creator nigga     244 15362
10 the_notorious_big niggas    234 16362
# ... with 134,925 more rows
…
book_words <- book_words %>%
  bind_tf_idf(word,rapper, n)

book_words

# A tibble: 134,935 x 7
# Groups:   rapper [36]
   rapper            word        n total     tf    idf   tf_idf
   <chr>             <chr>   <int> <int>  <dbl>  <dbl>    <dbl>
 1 Tyler The Creator fuck      402 15362 0.0262 0.0572 0.00150 
 2 Montana of 300    bitch     371 19082 0.0194 0.0572 0.00111 
 3 Montana of 300    nigga     354 19082 0.0186 0.0572 0.00106 
 4 Tyler The Creator fucking   297 15362 0.0193 0.0572 0.00111 
 5 Montana of 300    niggas    275 19082 0.0144 0.0282 0.000406
 6 Deniro Farrar     nigga     270  7234 0.0373 0.0572 0.00213 
 7 Montana of 300    shit      257 19082 0.0135 0.0572 0.000770
 8 A$AP Rocky        nigga     249 12391 0.0201 0.0572 0.00115 
 9 Tyler The Creator nigga     244 15362 0.0159 0.0572 0.000908
10 the_notorious_big niggas    234 16362 0.0143 0.0282 0.000403
# ... with 134,925 more rows
…
